render_mod_tb.vcd
$date
	Sun May 25 23:18:11 2025
$end
$version
	Icarus Verilog
$end
$timescale
	1ps
$end
$scope module render_mod_tb $end
$var wire 1 ! vsync $end
$var wire 9 " pixel_data [8:0] $end
$var wire 1 # hsync $end
$var wire 10 $ char_index [9:0] $end
$var reg 8 % char_data [7:0] $end
$var reg 1 & pixel_clock $end
$var reg 1 ' reset $end
$scope module uut $end
$var wire 1 ( active $end
$var wire 8 ) char_data [7:0] $end
$var wire 1 & pixel_clock $end
$var wire 1 ' reset $end
$var wire 1 ! vsync $end
$var wire 10 * v_count_next [9:0] $end
$var wire 7 + row_pixel [6:0] $end
$var wire 10 , row [9:0] $end
$var wire 9 - pixel_data [8:0] $end
$var wire 1 . pixel $end
$var wire 1 # hsync $end
$var wire 10 / h_count_next [9:0] $end
$var wire 7 0 column_pixel [6:0] $end
$var wire 10 1 column [9:0] $end
$var wire 10 2 char_index [9:0] $end
$var parameter 32 3 H_BACK_PORCH $end
$var parameter 32 4 H_FRONT_PORCH $end
$var parameter 32 5 H_SYNC_PULSE $end
$var parameter 32 6 SCREEN_HEIGHT $end
$var parameter 32 7 SCREEN_WIDTH $end
$var parameter 32 8 V_BACK_PORCH $end
$var parameter 32 9 V_FRONT_PORCH $end
$var parameter 32 : V_SYNC_PULSE $end
$var reg 10 ; h_count [9:0] $end
$var reg 10 < v_count [9:0] $end
$upscope $end
$upscope $end
$enddefinitions $end
$comment Show the parameter values. $end
$dumpall
b10 :
b1011 9
b11111 8
b1010000000 7
b111100000 6
b1100000 5
b10000 4
b110000 3
$end
#0
$dumpvars
bx <
bx ;
bx 2
bx 1
bx 0
bx /
x.
b0xxx000 -
bx ,
bx +
bx *
b10110000 )
x(
1'
0&
b10110000 %
bx $
x#
b0xxx000 "
x!
$end
#10000
b0 "
b0 -
1!
1#
b0 $
b0 2
b0 ,
0.
b0 +
1(
b0 1
b0 0
b1 *
b0 <
b1 /
b0 ;
1&
#20000
0&
#30000
b111000 "
b111000 -
1.
b1 0
b10 /
b1 ;
1&
#40000
0&
#50000
b0 "
b0 -
0.
b0 0
b1 /
b0 ;
1&
0'
#60000
0&
#70000
1&
#80000
0&
#90000
1&
#100000
0&
1'
#110000
b111000 "
b111000 -
1.
b1 0
b10 /
b1 ;
1&
#120000
0&
#130000
b0 "
b0 -
0.
b10 0
b11 /
b10 ;
1&
#140000
0&
#150000
b11 0
b100 /
b11 ;
1&
#160000
0&
#170000
b100 0
b101 /
b100 ;
1&
#180000
0&
#190000
b111000 "
b111000 -
1.
b101 0
b110 /
b101 ;
1&
#200000
b0 "
b0 -
0&
0.
b1000010 %
b1000010 )
#210000
b110 0
b111 /
b110 ;
1&
#220000
0&
#230000
b111 0
b1000 /
b111 ;
1&
#240000
0&
#250000
b1 $
b1 2
b1 1
b0 0
b1001 /
b1000 ;
1&
#260000
0&
#270000
b1 0
b1010 /
b1001 ;
1&
#280000
0&
#290000
b10 0
b1011 /
b1010 ;
1&
#300000
0&
b1000011 %
b1000011 )
#310000
b11 0
b1100 /
b1011 ;
1&
#320000
0&
#330000
b100 0
b1101 /
b1100 ;
1&
#340000
0&
#350000
b101 0
b1110 /
b1101 ;
1&
#360000
0&
#370000
b110 0
b1111 /
b1110 ;
1&
#380000
0&
#390000
b111 0
b10000 /
b1111 ;
1&
#400000
0&
#410000
b10 $
b10 2
b10 1
b0 0
b10001 /
b10000 ;
1&
#420000
0&
#430000
b1 0
b10010 /
b10001 ;
1&
#440000
0&
#450000
b10 0
b10011 /
b10010 ;
1&
#460000
0&
#470000
b11 0
b10100 /
b10011 ;
1&
#480000
0&
#490000
b100 0
b10101 /
b10100 ;
1&
#500000
0&
#510000
b101 0
b10110 /
b10101 ;
1&
#520000
0&
#530000
b110 0
b10111 /
b10110 ;
1&
#540000
0&
#550000
b111 0
b11000 /
b10111 ;
1&
#560000
0&
#570000
b11 $
b11 2
b11 1
b0 0
b11001 /
b11000 ;
1&
#580000
0&
#590000
b1 0
b11010 /
b11001 ;
1&
#600000
0&
#610000
b10 0
b11011 /
b11010 ;
1&
#620000
0&
#630000
b11 0
b11100 /
b11011 ;
1&
#640000
0&
#650000
b100 0
b11101 /
b11100 ;
1&
#660000
0&
#670000
b101 0
b11110 /
b11101 ;
1&
#680000
0&
#690000
b110 0
b11111 /
b11110 ;
1&
#700000
0&
#710000
b111 0
b100000 /
b11111 ;
1&
#720000
0&
#730000
b100 $
b100 2
b100 1
b0 0
b100001 /
b100000 ;
1&
#740000
0&
#750000
b1 0
b100010 /
b100001 ;
1&
#760000
0&
#770000
b10 0
b100011 /
b100010 ;
1&
#780000
0&
#790000
b11 0
b100100 /
b100011 ;
1&
#800000
0&
#810000
b100 0
b100101 /
b100100 ;
1&
#820000
0&
#830000
b101 0
b100110 /
b100101 ;
1&
#840000
0&
#850000
b110 0
b100111 /
b100110 ;
1&
#860000
0&
#870000
b111 0
b101000 /
b100111 ;
1&
#880000
0&
#890000
b101 $
b101 2
b101 1
b0 0
b101001 /
b101000 ;
1&
#900000
0&
#910000
b1 0
b101010 /
b101001 ;
1&
#920000
0&
#930000
b10 0
b101011 /
b101010 ;
1&
#940000
0&
#950000
b11 0
b101100 /
b101011 ;
1&
#960000
0&
#970000
b100 0
b101101 /
b101100 ;
1&
#980000
0&
#990000
b101 0
b101110 /
b101101 ;
1&
#1000000
0&
#1010000
b110 0
b101111 /
b101110 ;
1&
#1020000
0&
#1030000
b111 0
b110000 /
b101111 ;
1&
#1040000
0&
#1050000
b110 $
b110 2
b110 1
b0 0
b110001 /
b110000 ;
1&
#1060000
0&
#1070000
b1 0
b110010 /
b110001 ;
1&
#1080000
0&
#1090000
b10 0
b110011 /
b110010 ;
1&
#1100000
0&
#1110000
b11 0
b110100 /
b110011 ;
1&
#1120000
0&
#1130000
b100 0
b110101 /
b110100 ;
1&
#1140000
0&
#1150000
b101 0
b110110 /
b110101 ;
1&
#1160000
0&
#1170000
b110 0
b110111 /
b110110 ;
1&
#1180000
0&
#1190000
b111 0
b111000 /
b110111 ;
1&
#1200000
0&
#1210000
b111 $
b111 2
b111 1
b0 0
b111001 /
b111000 ;
1&
#1220000
0&
#1230000
b1 0
b111010 /
b111001 ;
1&
#1240000
0&
#1250000
b10 0
b111011 /
b111010 ;
1&
#1260000
0&
#1270000
b11 0
b111100 /
b111011 ;
1&
#1280000
0&
#1290000
b100 0
b111101 /
b111100 ;
1&
